name="AVE MARIA"
tags={
	"Historical"
	"Decisions"
	"Events"
	"Gameplay"
	"Total Conversion"
	"Map"
	"Bookmarks"
	"Religion"
	"Character Focuses"
	"Character Interactions"
	"Culture"
	"Warfare"
}
supported_version="1.4.*"